<?xml version="1.0" encoding="UTF-8" standalone="no"?>
<!DOCTYPE svg PUBLIC "-//W3C//DTD SVG 1.1//EN" "http://www.w3.org/Graphics/SVG/1.1/DTD/svg11.dtd">
<svg width="100%" height="100%" viewBox="0 0 192 192" version="1.1" xmlns="http://www.w3.org/2000/svg" xmlns:xlink="http://www.w3.org/1999/xlink" xml:space="preserve" xmlns:serif="http://www.serif.com/" style="fill-rule:evenodd;clip-rule:evenodd;stroke-linejoin:round;stroke-miterlimit:1.41421;">
    <rect id="_192" serif:id="192" x="0" y="0" width="192" height="192" style="fill:none;"/>
    <clipPath id="_clip1">
        <rect id="_1921" serif:id="192" x="0" y="0" width="192" height="192"/>
    </clipPath>
    <g clip-path="url(#_clip1)">
        <path d="M121.083,53.035l48.417,0l-20.068,35.485l-19.283,-19.569l39.351,69.084l-48.071,0l-25.429,44.965l-21.211,-37.506l27.836,-7.459l-80.125,0l24.122,-42.347l-24.122,-42.653l40.493,0l-6.657,25.599l39.664,-69.634l25.083,44.035Zm-25.083,24.777c10.038,0 18.188,8.15 18.188,18.188c0,10.038 -8.15,18.188 -18.188,18.188c-10.038,0 -18.188,-8.15 -18.188,-18.188c0,-10.038 8.15,-18.188 18.188,-18.188Z"/>
    </g>
</svg>
